certifi==2019.3.9
chardet==3.0.4
Django==1.11.20
django-allauth==0.39.1
django-cors-headers==2.5.2
django-rest-auth==0.9.3
django-seed==0.1.9
djangorestframework==3.9.2
Faker==1.0.4
idna==2.8
ipaddress==1.0.22
oauthlib==3.0.1
python-dateutil==2.8.0
python-openid==2.2.5
pytz==2018.9
requests==2.21.0
requests-oauthlib==1.2.0
six==1.12.0
text-unidecode==1.2
urllib3==1.24.1
